Post-selection inference on Friends titles in R | Jesse Tweedle
…
      This post applies post-selection procedure to estimating the effect of character names in Friends episode titles on their ratings. Ross is good, apparently.

Goal

I want to be a Friends scriptwriter. Can I pick a title that makes an episode an automatic classic? If I just include a character’s name in the title, does it make it automatically popular? I assume I should just write “The One Where Rachel is Rachel”. But let’s investigate.

The question: what is the effect of a character’s name in the episode title on the episode rating?

Data

We’ll use Friends data we rvested from IMDB in a previous post, or just load it via devtools::install_github('tweed1e/werfriends').

titles <- werfriends::friends_episodes %>% as_tibble()
titles
## # A tibble: 236 x 7
##    season episode                                           title rating
##     <dbl>   <dbl>                                           <chr>  <dbl>
##  1      1       1           The One Where Monica Gets a Roommate     8.5
##  2      1       2           The One with the Sonogram at the End     8.2
##  3      1       3                         The One with the Thumb     8.3
##  4      1       4             The One with George Stephanopoulos     8.3
##  5      1       5 The One with the East German Laundry Detergent     8.6
##  6      1       6                          The One with the Butt     8.3
##  7      1       7                      The One with the Blackout     9.0
##  8      1       8                  The One Where Nana Dies Twice     8.2
##  9      1       9               The One Where Underdog Gets Away     8.3
## 10      1      10                        The One with the Monkey     8.2
## # ... with 226 more rows, and 3 more variables: n_ratings <dbl>,
## #   director <list>, writers <list>
…
Code

There are a few annoying steps.

First, I use tidytext to convert titles to words, and then spread those words into dummy factors for the dataset (the dataset is very ‘wide’ after this). I create dummy factors for directors and writers as well.

Next, run the naive linear model, and save the estimates. Then run naive LASSO and save the estimates. Then run the double-selection procedure.

Process

Do ugly stuff (check source) for full code and end up with this:

# the dataset
episodes
## # A tibble: 236 x 352
##    rating chandler   joey monica phoebe rachel   ross season episode
##     <dbl>   <fctr> <fctr> <fctr> <fctr> <fctr> <fctr> <fctr>  <fctr>
##  1    8.5        0      0      1      0      0      0      1       1
##  2    8.2        0      0      0      0      0      0      1       2
##  3    8.3        0      0      0      0      0      0      1       3
##  4    8.3        0      0      0      0      0      0      1       4
##  5    8.6        0      0      0      0      0      0      1       5
##  6    8.3        0      0      0      0      0      0      1       6
##  7    9.0        0      0      0      0      0      0      1       7
##  8    8.2        0      0      0      0      0      0      1       8
##  9    8.3        0      0      0      0      0      0      1       9
## 10    8.2        0      0      0      0      0      0      1      10
## # ... with 226 more rows, and 343 more variables: n_ratings <fctr>,
## #   after <fctr>, apothecary <fctr>, armadillo <fctr>, assistant <fctr>,
## #   award <fctr>, baby <fctr>, babysits <fctr>, bag <fctr>, ball <fctr>,
## #   ballroom <fctr>, barbados <fctr>, barry <fctr>, bath <fctr>,
## #   beach <fctr>, bed <fctr>, bing <fctr>, birth <fctr>, birthday <fctr>,
## #   birthing <fctr>, blackout <fctr>, blind <fctr>, boob <fctr>,
## #   boobies <fctr>, book <fctr>, boots <fctr>, box <fctr>, brain <fctr>,
## #   breast <fctr>, bullies <fctr>, bus <fctr>, butt <fctr>,
## #   c.h.e.e.s.e <fctr>, cake <fctr>, candy <fctr>, car <fctr>, cat <fctr>,
…
Or we could use LASSO to select our control variables for us; we remove the penalty on the characters to ensure these coefficients are estimated to be non-zero.

# penalty factor: 0 for the first 6 variables (the characters), 
# then 1 for the rest.
penalty.factor <- c(rep(0, 6), rep(1, ncol(ep_mm) - 6))

# use `glmnet` to run cross-validated lasso with new penalty.factor
c <- cv.glmnet(ep_mm, episodes$rating, penalty.factor = penalty.factor) %>%
  coef(s = 'lambda.min') %>% .[-1,] # save the optimal coefficients 

# then create dataset of coefficient estimates
lasso <- tibble(term = names(c), estimate = c)
lasso
## # A tibble: 236 x 2
##         term      estimate
##        <chr>         <dbl>
##  1 chandler1  0.1176019972
##  2     joey1 -0.0471344876
##  3   monica1 -0.0344661784
##  4   phoebe1 -0.1441493845
##  5   rachel1 -0.0431721298
##  6     ross1  0.1990786702
##  7   season2  0.0000000000
##  8   season3 -0.0001827438
##  9   season4  0.0006538244
## 10   season5  0.0597535505
## # ... with 226 more rows
…
