---
title: "Friends Title Generator, Part 2: parts of speech"
author: "Jesse Tweedle"
date: '2017-12-24'
slug: friends-title-generator-2
description: "This post includes a R code script to generate Friends episode titles, focusing on using parts of speech."
tags: ["r", "friends", "tidytext", "nlp", "markov model"]
categories: ["r", "friends"]
---

We’re back on the Friends script grind.

titles <- werfriends::friends_episodes %>% select(-director, -writers)
titles
## # A tibble: 236 x 5
##    season episode                                           title rating
##     <dbl>   <dbl>                                           <chr>  <dbl>
##  1      1       1           The One Where Monica Gets a Roommate     8.5
##  2      1       2           The One with the Sonogram at the End     8.2
##  3      1       3                         The One with the Thumb     8.3
##  4      1       4             The One with George Stephanopoulos     8.3
##  5      1       5 The One with the East German Laundry Detergent     8.6
##  6      1       6                          The One with the Butt     8.3
##  7      1       7                      The One with the Blackout     9.0
##  8      1       8                  The One Where Nana Dies Twice     8.2
##  9      1       9               The One Where Underdog Gets Away     8.3
## 10      1      10                        The One with the Monkey     8.2
## # ... with 226 more rows, and 1 more variables: n_ratings <dbl>
…
pos_transitions <- titles_pos %>% 
  group_by(season, episode) %>%
  filter(lineno >= 2) %>% 
  mutate(pos = ifelse(lineno<=3, word, pos),
         nxt = lead(pos), 
         nxt = ifelse(is.na(nxt), "EOL", nxt)) %>% 
  group_by(pos, nxt) %>% 
  count() %>% 
  group_by(pos) %>% 
  mutate(weight = n / sum(n))

pos_transitions
## # A tibble: 119 x 4
## # Groups:   pos [31]
##          pos       nxt     n     weight
##        <chr>     <chr> <int>      <dbl>
##  1        's Adjective    11 0.21568627
##  2        's   Article     1 0.01960784
##  3        's      Noun    36 0.70588235
##  4        's      Verb     3 0.05882353
##  5 Adjective Adjective     1 0.02857143
##  6 Adjective       EOL     5 0.14285714
##  7 Adjective    Letter     1 0.02857143
##  8 Adjective      Name     1 0.02857143
##  9 Adjective      Noun    22 0.62857143
## 10 Adjective      Verb     5 0.14285714
## # ... with 109 more rows
…
