…
To fulfill my lifelong desire to write Friends scripts, I’ll start by writing a Friends episode title. By that I mean a script that writes a Friends episode title. If you’re like me, you want to be creative, but I want to study artists and writers and distill their creativity into a recipe, and then just repeat it over and over. Isn’t that how artistic success works?

Start with episode data from the first Friends post. We rvested a bunch of stuff from the Friends IMDB.

titles <- werfriends::friends_episodes %>% as_tibble() %>%
  select(-director, -writers)
titles
## # A tibble: 236 x 5
##    season episode title                                   rating n_ratings
##     <dbl>   <dbl> <chr>                                    <dbl>     <dbl>
##  1     1.      1. The One Where Monica Gets a Roommate      8.50     4317.
##  2     1.      2. The One with the Sonogram at the End      8.20     3107.
##  3     1.      3. The One with the Thumb                    8.30     2900.
##  4     1.      4. The One with George Stephanopoulos        8.30     2810.
##  5     1.      5. The One with the East German Laundry D…   8.60     2768.
##  6     1.      6. The One with the Butt                     8.30     2695.
##  7     1.      7. The One with the Blackout                 9.00     3516.
##  8     1.      8. The One Where Nana Dies Twice             8.20     2594.
##  9     1.      9. The One Where Underdog Gets Away          8.30     2516.
## 10     1.     10. The One with the Monkey                   8.20     2544.
## # ... with 226 more rows

Check out the words

Apply the easy tidytext function unnest_tokens to process the titles, then remove the filler words by applying anti_join on the tidytext dataset stop_words.

title_words <- titles %>% 
  unnest_tokens(word, title) %>% 
  anti_join(stop_words)
## Joining, by = "word"

# replace 'rachel's' with 'rachel'
title_words %>% 
  mutate(word = gsub(pattern = "'s", replacement = "", x = word)) %>% 
  count(word, sort = TRUE)
## # A tibble: 266 x 2
##    word         n
##    <chr>    <int>
##  1 rachel      28
##  2 ross        24
##  3 joey        16
##  4 chandler    11
##  5 phoebe      10
##  6 1            9
##  7 2            9
##  8 monica       9
##  9 wedding      9
## 10 dies         6
## # ... with 256 more rows
…
