…
# the base Friends url; it only needs a season number suffix
url <- "http://www.imdb.com/title/tt0108778/episodes?season="

# make a list of all the season urls (there are 10 seasons)
season_urls <- map_chr(1:10, function(n) {paste0(url, n)})

# for each season in the list, download all the data and put it together 
titles <- season_urls %>% map(get_season_data) %>% bind_rows()

Inspect the data

The data includes season, episode, title, rating, number of ratings, director and writers (in list form, because there’s usually more than one writer, and sometimes multiple directors).

titles
## # A tibble: 236 x 7
##    season episode title                  rating n_ratings director  writers
##     <dbl>   <dbl> <chr>                   <dbl>     <dbl> <list>    <list> 
##  1      1       1 The One Where Monica …    8.5      4317 <chr [1]> <chr […
##  2      1       2 The One with the Sono…    8.2      3107 <chr [1]> <chr […
##  3      1       3 The One with the Thum…    8.3      2900 <chr [1]> <chr […
##  4      1       4 The One with George S…    8.3      2810 <chr [1]> <chr […
##  5      1       5 The One with the East…    8.6      2768 <chr [1]> <chr […
##  6      1       6 The One with the Butt     8.3      2695 <chr [1]> <chr […
##  7      1       7 The One with the Blac…    9        3516 <chr [1]> <chr […
##  8      1       8 The One Where Nana Di…    8.2      2594 <chr [1]> <chr […
##  9      1       9 The One Where Underdo…    8.3      2516 <chr [1]> <chr […
## 10      1      10 The One with the Monk…    8.2      2544 <chr [1]> <chr […
## # … with 226 more rows
…
Nope. I guess he did ok, mainly focusing on Seasons 7 and 8 and coming out with an average rating of 8.61, slightly higher than the series average of 8.54. Well. Fine. Ross still sucks.

Title character breakdown

I bet if I write an episode titled “The One Where Rachel [does X]” it’ll be an automatic classic. Let’s check. First, use tidytext::unnest_tokens to split the titles into words, and then take out common filler words (‘The’, ‘One’, ‘a’, etc.) with the quick and helpful anti_join(stop_words).

title_words <- titles %>% 
  select(-director, -writers) %>% 
  unnest_tokens(word, title) %>% 
  anti_join(stop_words)
## Joining, by = "word"
title_words
## # A tibble: 431 x 5
##    season episode rating n_ratings word          
##     <dbl>   <dbl>  <dbl>     <dbl> <chr>         
##  1      1       1    8.5      4317 monica        
##  2      1       1    8.5      4317 roommate      
##  3      1       2    8.2      3107 sonogram      
##  4      1       3    8.3      2900 thumb         
##  5      1       4    8.3      2810 george        
##  6      1       4    8.3      2810 stephanopoulos
##  7      1       5    8.6      2768 east          
##  8      1       5    8.6      2768 german        
##  9      1       5    8.6      2768 laundry       
## 10      1       5    8.6      2768 detergent     
## # … with 421 more rows
…
