…
Now just check out the ones we want, and save them to a `tibble`. First, let's just have a look at `hansard_statements` just to check it out:

``` {r eval = FALSE}
test_query <-  "SELECT *
                FROM hansards_statement
                LIMIT 20;"

df <- dbGetQuery(con, test_query) %>% as_tibble()
df %>% print(n = 5)
# A tibble: 20 x 27
#        id document_id time                h1_en  h2_en member_id who_en content_en   sequence
#  *  <int>       <int> <dttm>              <chr>  <chr>     <int> <chr>  <chr>           <int>
#  1 645328         388 2008-02-14 13:15:00 Routi… Ques…        NA ""     "<p class=\…       86
#  2 232373        1878 2001-05-03 13:50:00 Gover… Fede…      2611 Ms. M… <p>Mr. Spea…       89
#  3 170961         944 1999-05-10 16:05:00 Gover… Inco…      3066 Mr. G… "<p>Mr. Spe…      210
#  4  27684        1138 1994-11-18 10:00:00 ""     Priv…        NA The S… "<p>My coll…        0
#  5 645329         388 2008-02-14 13:15:00 Routi… Ques…      1534 Mr. T… "<p data-Ho…       87
# # ... with 15 more rows, and 18 more variables: wordcount <int>, politician_id <int>,
# #   procedural <lgl>, h3_en <chr>, who_hocid <int>, content_fr <chr>, statement_type <chr>,
# #   written_question <chr>, source_id <chr>, who_context_en <chr>, slug <chr>,
# #   urlcache <chr>, h1_fr <chr>, h2_fr <chr>, h3_fr <chr>, who_fr <chr>,
# #   who_context_fr <chr>, wordcount_en <int>
```
…
