…
events_df %>% print(n = 5)
## # A tibble: 5,068 x 4
##   id                               session             treatment click
##   <chr>                            <dttm>                  <int> <int>
## 1 4b5630ee914e848e8d07221556b0a2fb 2019-07-09 15:23:23         0     1
## 2 4b5630ee914e848e8d07221556b0a2fb 2019-03-21 04:14:59         0     0
## 3 4b5630ee914e848e8d07221556b0a2fb 2019-02-25 07:19:44         0     1
## 4 4b5630ee914e848e8d07221556b0a2fb 2019-01-29 01:17:44         0     1
## 5 4b5630ee914e848e8d07221556b0a2fb 2019-06-13 21:26:08         0     0
## # … with 5,063 more rows

What if you assigned treatment to sessions instead of to users (see this Skyscanner post for an overview of the problems you’re in for)?

events_df <- events_df %>% 
  mutate(treatment = rbinom(length(treatment), 1, 0.5),
         click = rbinom(length(treatment), 1, p + beta * treatment))

What’s the difference between these two datasets?

# with user ids
events_df %>% print(n = 3)
## # A tibble: 5,068 x 4
##   id                               session             treatment click
##   <chr>                            <dttm>                  <int> <int>
## 1 4b5630ee914e848e8d07221556b0a2fb 2019-07-09 15:23:23         0     1
## 2 4b5630ee914e848e8d07221556b0a2fb 2019-03-21 04:14:59         0     0
## 3 4b5630ee914e848e8d07221556b0a2fb 2019-02-25 07:19:44         1     0
## # … with 5,065 more rows

# session id only
events_df %>% select(-id) %>% print(n = 3)
## # A tibble: 5,068 x 3
##   session             treatment click
##   <dttm>                  <int> <int>
## 1 2019-07-09 15:23:23         0     1
## 2 2019-03-21 04:14:59         0     0
## 3 2019-02-25 07:19:44         1     0
## # … with 5,065 more rows
…
