…
Was Jalen Rose really the first Jalen? He claims his mother was the first to make up the name, a combo of his father’s (the NBA player Jimmie Walker) and uncle’s (Leonard) names. And now we see them everywhere: Jalen Hurts (the Alabama QB that was benched in the national title game a few weeks ago) and Jalen Ramsey (Jags cornerback). Was he really? On the other hand, Shaq is an equally distinct name, what happened after he got famous?

This project is almost one line. Get a dataset of babyname counts (via Hadley’s babynames), filter for Jalen and Shaq(uille), and plot them over time. But first we’ll see if there were any Jalens before he started at Michigan in 1991:

library(babynames)
babynames %>% 
  filter(name == "Jalen") %>% 
  group_by(name, year) %>% 
  summarize(n = sum(n))
## # A tibble: 33 x 3
## # Groups:   name [?]
##    name   year     n
##    <chr> <dbl> <int>
##  1 Jalen  1976     5
##  2 Jalen  1977     5
##  3 Jalen  1981     5
##  4 Jalen  1986     5
##  5 Jalen  1988     5
##  6 Jalen  1990     5
##  7 Jalen  1991    15
##  8 Jalen  1992   642
##  9 Jalen  1993  1468
## 10 Jalen  1994  1770
## # … with 23 more rows
…
