…
# Create a dataset of parameters,
dfs <- tibble(N = rep(10000, 1000), 
              beta = rep(0.1, 1000)) %>% 
  mutate(true_coefficient = log(pnorm(beta * 1) / (1 - pnorm(beta * 1)))) 

# Then call create_data on each set of parameters to create 1000 independent 
# copies of a dataset (in list-col form)
dfs <- dfs %>% 
  rowwise() %>% 
  mutate(data = list(create_data(N = N, beta = beta))) %>% 
  ungroup()
dfs
## # A tibble: 1,000 x 4
##         N  beta true_coefficient data                 
##     <dbl> <dbl>            <dbl> <list>               
##  1 10000. 0.100            0.160 <tibble [10,000 × 4]>
##  2 10000. 0.100            0.160 <tibble [10,000 × 4]>
##  3 10000. 0.100            0.160 <tibble [10,000 × 4]>
##  4 10000. 0.100            0.160 <tibble [10,000 × 4]>
##  5 10000. 0.100            0.160 <tibble [10,000 × 4]>
##  6 10000. 0.100            0.160 <tibble [10,000 × 4]>
##  7 10000. 0.100            0.160 <tibble [10,000 × 4]>
##  8 10000. 0.100            0.160 <tibble [10,000 × 4]>
##  9 10000. 0.100            0.160 <tibble [10,000 × 4]>
## 10 10000. 0.100            0.160 <tibble [10,000 × 4]>
## # ... with 990 more rows
…
Then we estimate the models for all the datasets:

dfs_estimates <- dfs %>% 
  rownames_to_column("id") %>% 
  mutate(estimates = map(data, get_estimates)) %>% 
  unnest(estimates)
dfs_estimates
## # A tibble: 2,000 x 10
##    id         N  beta true_coefficient model    term    estimate std.error
##    <chr>  <dbl> <dbl>            <dbl> <chr>    <chr>      <dbl>     <dbl>
##  1 1     10000. 0.100            0.160 base     treatm…   0.150     0.0401
##  2 1     10000. 0.100            0.160 covaria… treatm…   0.221     0.0494
##  3 2     10000. 0.100            0.160 base     treatm…   0.0730    0.0400
##  4 2     10000. 0.100            0.160 covaria… treatm…   0.117     0.0486
##  5 3     10000. 0.100            0.160 base     treatm…   0.123     0.0400
##  6 3     10000. 0.100            0.160 covaria… treatm…   0.166     0.0490
##  7 4     10000. 0.100            0.160 base     treatm…   0.127     0.0400
##  8 4     10000. 0.100            0.160 covaria… treatm…   0.186     0.0494
##  9 5     10000. 0.100            0.160 base     treatm…   0.104     0.0400
## 10 5     10000. 0.100            0.160 covaria… treatm…   0.183     0.0492
## # ... with 1,990 more rows, and 2 more variables: statistic <dbl>,
## #   p.value <dbl>
…
